[{
  "_id": {
    "$oid": "60c72b2f9b1e8b6b4c8e4d30"
  },
  "name": "speaker",
  "description": "High-quality speakers for all your audio needs.",
  "thumbnails": "speaker_thumbnail.jpg",
  "createdAt": "2024-06-01T00:00:00Z",
  "updatedAt": "2024-06-01T00:00:00Z"
},
{
  "_id": {
    "$oid": "60c72b2f9b1e8b6b4c8e4d2e"
  },
  "name": "laptop",
  "description": "Various models of laptops for different needs.",
  "thumbnails": "laptop_thumbnail.jpg",
  "createdAt": "2024-06-01T00:00:00Z",
  "updatedAt": "2024-06-01T00:00:00Z"
},
{
  "_id": {
    "$oid": "60c72b2f9b1e8b6b4c8e4d31"
  },
  "name": "keyboard",
  "description": "Mechanical and membrane keyboards.",
  "thumbnails": "keyboard_thumbnail.jpg",
  "createdAt": "2024-06-01T00:00:00Z",
  "updatedAt": "2024-06-01T00:00:00Z"
},
{
  "_id": {
    "$oid": "60c72b2f9b1e8b6b4c8e4d2f"
  },
  "name": "phone",
  "description": "Smartphones from leading brands.",
  "thumbnails": "phone_thumbnail.jpg",
  "createdAt": "2024-06-01T00:00:00Z",
  "updatedAt": "2024-06-01T00:00:00Z"
},
{
  "_id": {
    "$oid": "60c72b2f9b1e8b6b4c8e4d32"
  },
  "name": "camera",
  "description": "Digital cameras and accessories.",
  "thumbnails": "camera_thumbnail.jpg",
  "createdAt": "2024-06-01T00:00:00Z",
  "updatedAt": "2024-06-01T00:00:00Z"
}]